module github.com/future-architect/tish

go 1.16

require (
	github.com/fatih/color v1.13.0
	github.com/google/shlex v0.0.0-20191202100458-e7afc7fbc510
	github.com/gookit/color v1.4.2
	github.com/jessevdk/go-flags v1.5.0
	github.com/kr/pretty v0.2.1 // indirect
	github.com/kr/text v0.2.0 // indirect
	github.com/mattn/go-runewidth v0.0.9 // indirect
	github.com/peterh/liner v1.2.1
	github.com/stretchr/testify v1.7.0
	golang.org/x/sys v0.0.0-20210902050250-f475640dd07b // indirect
	gopkg.in/check.v1 v1.0.0-20180628173108-788fd7840127 // indirect
)
